[
  {
    "Name": "PCB Workshop by 12 Geeks.",
    "When": "2016-11-05T05:30:00.000Z",
    "URL": "https://learn.12geeks.com/event/30"
  },
  {
    "Name": "Papers We Love #023",
    "When": "2016-11-07T11:30:00.000Z",
    "URL": "https://www.facebook.com/events/977274135734881/"
  },
  {
    "Name": "Haskell.SG meetup",
    "When": "2016-11-09T11:00:00.000Z",
    "URL": "http://www.haskell.sg"
  },
  {
    "Name": "PCB Workshop by 12 Geeks.",
    "When": "2016-11-12T05:30:00.000Z",
    "URL": "https://learn.12geeks.com/event/30"
  },
  {
    "Name": "PCB Workshop by 12 Geeks.",
    "When": "2016-11-26T05:30:00.000Z",
    "URL": "https://learn.12geeks.com/event/30"
  }
]